{
  "formatVersion": 1,
  "database": {
    "version": 1,
    "identityHash": "0e290b9a223c7a6edd63a49826f2c5f9",
    "entities": [
      {
        "tableName": "User",
        "createSql": "CREATE TABLE IF NOT EXISTS `${TABLE_NAME}` (`id` TEXT NOT NULL, `user_id` TEXT NOT NULL, `dist_id` TEXT NOT NULL, `block_id` TEXT NOT NULL, `session_key` TEXT NOT NULL, `user_priority` TEXT NOT NULL, `status` INTEGER NOT NULL, `version` TEXT NOT NULL, PRIMARY KEY(`id`))",
        "fields": [
          {
            "fieldPath": "id",
            "columnName": "id",
            "affinity": "TEXT",
            "notNull": true
          },
          {
            "fieldPath": "user_id",
            "columnName": "user_id",
            "affinity": "TEXT",
            "notNull": true
          },
          {
            "fieldPath": "dist_id",
            "columnName": "dist_id",
            "affinity": "TEXT",
            "notNull": true
          },
          {
            "fieldPath": "block_id",
            "columnName": "block_id",
            "affinity": "TEXT",
            "notNull": true
          },
          {
            "fieldPath": "session_key",
            "columnName": "session_key",
            "affinity": "TEXT",
            "notNull": true
          },
          {
            "fieldPath": "user_priority",
            "columnName": "user_priority",
            "affinity": "TEXT",
            "notNull": true
          },
          {
            "fieldPath": "status",
            "columnName": "status",
            "affinity": "INTEGER",
            "notNull": true
          },
          {
            "fieldPath": "version",
            "columnName": "version",
            "affinity": "TEXT",
            "notNull": true
          }
        ],
        "primaryKey": {
          "columnNames": [
            "id"
          ],
          "autoGenerate": false
        },
        "indices": [],
        "foreignKeys": []
      },
      {
        "tableName": "HwData",
        "createSql": "CREATE TABLE IF NOT EXISTS `${TABLE_NAME}` (`id` TEXT NOT NULL, `scheme_name` TEXT, `scheme_code` TEXT, `scheme_smcode` TEXT, `scheme_status` TEXT, `hab_name` TEXT, `mouza_name` TEXT, `jlno` TEXT, `lat` TEXT, `lon` TEXT, `tw_no` TEXT, `zone` TEXT, `tw_condition` TEXT, `how_long` TEXT, `nw_reason` TEXT, `pump_hours` TEXT, `supply_hours` TEXT, `litho_collected` TEXT, `yield` TEXT, `qp_odor` TEXT, `qp_color` TEXT, `qp_opacity` TEXT, `chl_functioning` TEXT, `chl_done` TEXT, `chl_frequency` TEXT, `provision_treatment` TEXT, `chl_operatortrain` TEXT, `provision_as` TEXT, `provision_fe` TEXT, `provision_f` TEXT, `tp_working` TEXT, `ohr_exist_stat` TEXT, `ohr_height` TEXT, `ohr_capacity` TEXT, `cwr_exist_status` TEXT, `cwr_height` TEXT, `condition_highlift` TEXT, `supply_level1` TEXT, `supply_level2` TEXT, `supply_level3` TEXT, `supply_level4` TEXT, `water_level` TEXT, `name_keyinformant` TEXT, `mob_keyinformant` TEXT, PRIMARY KEY(`id`))",
        "fields": [
          {
            "fieldPath": "id",
            "columnName": "id",
            "affinity": "TEXT",
            "notNull": true
          },
          {
            "fieldPath": "scheme_name",
            "columnName": "scheme_name",
            "affinity": "TEXT",
            "notNull": false
          },
          {
            "fieldPath": "scheme_code",
            "columnName": "scheme_code",
            "affinity": "TEXT",
            "notNull": false
          },
          {
            "fieldPath": "scheme_smcode",
            "columnName": "scheme_smcode",
            "affinity": "TEXT",
            "notNull": false
          },
          {
            "fieldPath": "scheme_status",
            "columnName": "scheme_status",
            "affinity": "TEXT",
            "notNull": false
          },
          {
            "fieldPath": "hab_name",
            "columnName": "hab_name",
            "affinity": "TEXT",
            "notNull": false
          },
          {
            "fieldPath": "mouza_name",
            "columnName": "mouza_name",
            "affinity": "TEXT",
            "notNull": false
          },
          {
            "fieldPath": "jlno",
            "columnName": "jlno",
            "affinity": "TEXT",
            "notNull": false
          },
          {
            "fieldPath": "lat",
            "columnName": "lat",
            "affinity": "TEXT",
            "notNull": false
          },
          {
            "fieldPath": "lon",
            "columnName": "lon",
            "affinity": "TEXT",
            "notNull": false
          },
          {
            "fieldPath": "tw_no",
            "columnName": "tw_no",
            "affinity": "TEXT",
            "notNull": false
          },
          {
            "fieldPath": "zone",
            "columnName": "zone",
            "affinity": "TEXT",
            "notNull": false
          },
          {
            "fieldPath": "tw_condition",
            "columnName": "tw_condition",
            "affinity": "TEXT",
            "notNull": false
          },
          {
            "fieldPath": "how_long",
            "columnName": "how_long",
            "affinity": "TEXT",
            "notNull": false
          },
          {
            "fieldPath": "nw_reason",
            "columnName": "nw_reason",
            "affinity": "TEXT",
            "notNull": false
          },
          {
            "fieldPath": "pump_hours",
            "columnName": "pump_hours",
            "affinity": "TEXT",
            "notNull": false
          },
          {
            "fieldPath": "supply_hours",
            "columnName": "supply_hours",
            "affinity": "TEXT",
            "notNull": false
          },
          {
            "fieldPath": "litho_collected",
            "columnName": "litho_collected",
            "affinity": "TEXT",
            "notNull": false
          },
          {
            "fieldPath": "yield",
            "columnName": "yield",
            "affinity": "TEXT",
            "notNull": false
          },
          {
            "fieldPath": "qp_odor",
            "columnName": "qp_odor",
            "affinity": "TEXT",
            "notNull": false
          },
          {
            "fieldPath": "qp_color",
            "columnName": "qp_color",
            "affinity": "TEXT",
            "notNull": false
          },
          {
            "fieldPath": "qp_opacity",
            "columnName": "qp_opacity",
            "affinity": "TEXT",
            "notNull": false
          },
          {
            "fieldPath": "chl_functioning",
            "columnName": "chl_functioning",
            "affinity": "TEXT",
            "notNull": false
          },
          {
            "fieldPath": "chl_done",
            "columnName": "chl_done",
            "affinity": "TEXT",
            "notNull": false
          },
          {
            "fieldPath": "chl_frequency",
            "columnName": "chl_frequency",
            "affinity": "TEXT",
            "notNull": false
          },
          {
            "fieldPath": "provision_treatment",
            "columnName": "provision_treatment",
            "affinity": "TEXT",
            "notNull": false
          },
          {
            "fieldPath": "chl_operatortrain",
            "columnName": "chl_operatortrain",
            "affinity": "TEXT",
            "notNull": false
          },
          {
            "fieldPath": "provision_as",
            "columnName": "provision_as",
            "affinity": "TEXT",
            "notNull": false
          },
          {
            "fieldPath": "provision_fe",
            "columnName": "provision_fe",
            "affinity": "TEXT",
            "notNull": false
          },
          {
            "fieldPath": "provision_f",
            "columnName": "provision_f",
            "affinity": "TEXT",
            "notNull": false
          },
          {
            "fieldPath": "tp_working",
            "columnName": "tp_working",
            "affinity": "TEXT",
            "notNull": false
          },
          {
            "fieldPath": "ohr_exist_stat",
            "columnName": "ohr_exist_stat",
            "affinity": "TEXT",
            "notNull": false
          },
          {
            "fieldPath": "ohr_height",
            "columnName": "ohr_height",
            "affinity": "TEXT",
            "notNull": false
          },
          {
            "fieldPath": "ohr_capacity",
            "columnName": "ohr_capacity",
            "affinity": "TEXT",
            "notNull": false
          },
          {
            "fieldPath": "cwr_exist_status",
            "columnName": "cwr_exist_status",
            "affinity": "TEXT",
            "notNull": false
          },
          {
            "fieldPath": "cwr_height",
            "columnName": "cwr_height",
            "affinity": "TEXT",
            "notNull": false
          },
          {
            "fieldPath": "condition_highlift",
            "columnName": "condition_highlift",
            "affinity": "TEXT",
            "notNull": false
          },
          {
            "fieldPath": "supply_level1",
            "columnName": "supply_level1",
            "affinity": "TEXT",
            "notNull": false
          },
          {
            "fieldPath": "supply_level2",
            "columnName": "supply_level2",
            "affinity": "TEXT",
            "notNull": false
          },
          {
            "fieldPath": "supply_level3",
            "columnName": "supply_level3",
            "affinity": "TEXT",
            "notNull": false
          },
          {
            "fieldPath": "supply_level4",
            "columnName": "supply_level4",
            "affinity": "TEXT",
            "notNull": false
          },
          {
            "fieldPath": "water_level",
            "columnName": "water_level",
            "affinity": "TEXT",
            "notNull": false
          },
          {
            "fieldPath": "name_keyinformant",
            "columnName": "name_keyinformant",
            "affinity": "TEXT",
            "notNull": false
          },
          {
            "fieldPath": "mob_keyinformant",
            "columnName": "mob_keyinformant",
            "affinity": "TEXT",
            "notNull": false
          }
        ],
        "primaryKey": {
          "columnNames": [
            "id"
          ],
          "autoGenerate": false
        },
        "indices": [],
        "foreignKeys": []
      },
      {
        "tableName": "HabData",
        "createSql": "CREATE TABLE IF NOT EXISTS `${TABLE_NAME}` (`id` TEXT NOT NULL, `dist_id` TEXT NOT NULL, `block_id` TEXT NOT NULL, `supply_level` TEXT NOT NULL, `user_id` TEXT NOT NULL, `panc_code` TEXT NOT NULL, `panc_name` TEXT NOT NULL, `vill_code` TEXT NOT NULL, `vill_name` TEXT NOT NULL, `hab_code` TEXT NOT NULL, `hab_name` TEXT NOT NULL, `scheme_smcode` TEXT NOT NULL, `scheme_code` TEXT NOT NULL, `hab_correction` TEXT NOT NULL, `new_habname` TEXT NOT NULL, `supply_status` TEXT NOT NULL, `supply_remarks` TEXT NOT NULL, `hab_remarks` TEXT NOT NULL, `uploaded` INTEGER NOT NULL, `device_date` TEXT NOT NULL, `device_time` TEXT NOT NULL, PRIMARY KEY(`id`))",
        "fields": [
          {
            "fieldPath": "id",
            "columnName": "id",
            "affinity": "TEXT",
            "notNull": true
          },
          {
            "fieldPath": "dist_id",
            "columnName": "dist_id",
            "affinity": "TEXT",
            "notNull": true
          },
          {
            "fieldPath": "block_id",
            "columnName": "block_id",
            "affinity": "TEXT",
            "notNull": true
          },
          {
            "fieldPath": "supply_level",
            "columnName": "supply_level",
            "affinity": "TEXT",
            "notNull": true
          },
          {
            "fieldPath": "user_id",
            "columnName": "user_id",
            "affinity": "TEXT",
            "notNull": true
          },
          {
            "fieldPath": "panc_code",
            "columnName": "panc_code",
            "affinity": "TEXT",
            "notNull": true
          },
          {
            "fieldPath": "panc_name",
            "columnName": "panc_name",
            "affinity": "TEXT",
            "notNull": true
          },
          {
            "fieldPath": "vill_code",
            "columnName": "vill_code",
            "affinity": "TEXT",
            "notNull": true
          },
          {
            "fieldPath": "vill_name",
            "columnName": "vill_name",
            "affinity": "TEXT",
            "notNull": true
          },
          {
            "fieldPath": "hab_code",
            "columnName": "hab_code",
            "affinity": "TEXT",
            "notNull": true
          },
          {
            "fieldPath": "hab_name",
            "columnName": "hab_name",
            "affinity": "TEXT",
            "notNull": true
          },
          {
            "fieldPath": "scheme_smcode",
            "columnName": "scheme_smcode",
            "affinity": "TEXT",
            "notNull": true
          },
          {
            "fieldPath": "scheme_code",
            "columnName": "scheme_code",
            "affinity": "TEXT",
            "notNull": true
          },
          {
            "fieldPath": "hab_correction",
            "columnName": "hab_correction",
            "affinity": "TEXT",
            "notNull": true
          },
          {
            "fieldPath": "new_habname",
            "columnName": "new_habname",
            "affinity": "TEXT",
            "notNull": true
          },
          {
            "fieldPath": "supply_status",
            "columnName": "supply_status",
            "affinity": "TEXT",
            "notNull": true
          },
          {
            "fieldPath": "supply_remarks",
            "columnName": "supply_remarks",
            "affinity": "TEXT",
            "notNull": true
          },
          {
            "fieldPath": "hab_remarks",
            "columnName": "hab_remarks",
            "affinity": "TEXT",
            "notNull": true
          },
          {
            "fieldPath": "uploaded",
            "columnName": "uploaded",
            "affinity": "INTEGER",
            "notNull": true
          },
          {
            "fieldPath": "device_date",
            "columnName": "device_date",
            "affinity": "TEXT",
            "notNull": true
          },
          {
            "fieldPath": "device_time",
            "columnName": "device_time",
            "affinity": "TEXT",
            "notNull": true
          }
        ],
        "primaryKey": {
          "columnNames": [
            "id"
          ],
          "autoGenerate": false
        },
        "indices": [],
        "foreignKeys": []
      },
      {
        "tableName": "SourceDurationData",
        "createSql": "CREATE TABLE IF NOT EXISTS `${TABLE_NAME}` (`id` TEXT NOT NULL, `tube_id` TEXT NOT NULL, `start_time` TEXT NOT NULL, `end_time` TEXT NOT NULL, `total_Duration` TEXT NOT NULL, PRIMARY KEY(`id`))",
        "fields": [
          {
            "fieldPath": "id",
            "columnName": "id",
            "affinity": "TEXT",
            "notNull": true
          },
          {
            "fieldPath": "tube_id",
            "columnName": "tube_id",
            "affinity": "TEXT",
            "notNull": true
          },
          {
            "fieldPath": "start_time",
            "columnName": "start_time",
            "affinity": "TEXT",
            "notNull": true
          },
          {
            "fieldPath": "end_time",
            "columnName": "end_time",
            "affinity": "TEXT",
            "notNull": true
          },
          {
            "fieldPath": "total_Duration",
            "columnName": "total_Duration",
            "affinity": "TEXT",
            "notNull": true
          }
        ],
        "primaryKey": {
          "columnNames": [
            "id"
          ],
          "autoGenerate": false
        },
        "indices": [],
        "foreignKeys": []
      },
      {
        "tableName": "KmlData",
        "createSql": "CREATE TABLE IF NOT EXISTS `${TABLE_NAME}` (`id` TEXT NOT NULL, `scheme_code` TEXT NOT NULL, `scheme_name` TEXT NOT NULL, `scheme_smcode` TEXT NOT NULL, `distribution_main` TEXT NOT NULL, `rising_main` TEXT NOT NULL, `road` TEXT NOT NULL, `pwss_boundary` TEXT NOT NULL, `mouza_boundary` TEXT NOT NULL, `damage_pipeline` TEXT NOT NULL, `settlement` TEXT NOT NULL, `center_lat` TEXT NOT NULL, `center_lon` TEXT NOT NULL, PRIMARY KEY(`id`))",
        "fields": [
          {
            "fieldPath": "id",
            "columnName": "id",
            "affinity": "TEXT",
            "notNull": true
          },
          {
            "fieldPath": "scheme_code",
            "columnName": "scheme_code",
            "affinity": "TEXT",
            "notNull": true
          },
          {
            "fieldPath": "scheme_name",
            "columnName": "scheme_name",
            "affinity": "TEXT",
            "notNull": true
          },
          {
            "fieldPath": "scheme_smcode",
            "columnName": "scheme_smcode",
            "affinity": "TEXT",
            "notNull": true
          },
          {
            "fieldPath": "distribution_main",
            "columnName": "distribution_main",
            "affinity": "TEXT",
            "notNull": true
          },
          {
            "fieldPath": "rising_main",
            "columnName": "rising_main",
            "affinity": "TEXT",
            "notNull": true
          },
          {
            "fieldPath": "road",
            "columnName": "road",
            "affinity": "TEXT",
            "notNull": true
          },
          {
            "fieldPath": "pwss_boundary",
            "columnName": "pwss_boundary",
            "affinity": "TEXT",
            "notNull": true
          },
          {
            "fieldPath": "mouza_boundary",
            "columnName": "mouza_boundary",
            "affinity": "TEXT",
            "notNull": true
          },
          {
            "fieldPath": "damage_pipeline",
            "columnName": "damage_pipeline",
            "affinity": "TEXT",
            "notNull": true
          },
          {
            "fieldPath": "settlement",
            "columnName": "settlement",
            "affinity": "TEXT",
            "notNull": true
          },
          {
            "fieldPath": "center_lat",
            "columnName": "center_lat",
            "affinity": "TEXT",
            "notNull": true
          },
          {
            "fieldPath": "center_lon",
            "columnName": "center_lon",
            "affinity": "TEXT",
            "notNull": true
          }
        ],
        "primaryKey": {
          "columnNames": [
            "id"
          ],
          "autoGenerate": false
        },
        "indices": [],
        "foreignKeys": []
      },
      {
        "tableName": "PointData",
        "createSql": "CREATE TABLE IF NOT EXISTS `${TABLE_NAME}` (`id` TEXT NOT NULL, `latitude` TEXT NOT NULL, `longitude` TEXT NOT NULL, `habitation` TEXT NOT NULL, `tube_working` TEXT NOT NULL, `panchayat` TEXT NOT NULL, `village` TEXT NOT NULL, `scheme_code` TEXT NOT NULL, `imagepath` TEXT, `slno` TEXT NOT NULL, `supplyHour` TEXT NOT NULL, `supplMin` TEXT NOT NULL, `supplySec` TEXT NOT NULL, `time_duration` TEXT NOT NULL, `uploaded` INTEGER NOT NULL, `location` TEXT NOT NULL, `habId` TEXT NOT NULL, PRIMARY KEY(`id`))",
        "fields": [
          {
            "fieldPath": "id",
            "columnName": "id",
            "affinity": "TEXT",
            "notNull": true
          },
          {
            "fieldPath": "latitude",
            "columnName": "latitude",
            "affinity": "TEXT",
            "notNull": true
          },
          {
            "fieldPath": "longitude",
            "columnName": "longitude",
            "affinity": "TEXT",
            "notNull": true
          },
          {
            "fieldPath": "habitation",
            "columnName": "habitation",
            "affinity": "TEXT",
            "notNull": true
          },
          {
            "fieldPath": "tube_working",
            "columnName": "tube_working",
            "affinity": "TEXT",
            "notNull": true
          },
          {
            "fieldPath": "panchayat",
            "columnName": "panchayat",
            "affinity": "TEXT",
            "notNull": true
          },
          {
            "fieldPath": "village",
            "columnName": "village",
            "affinity": "TEXT",
            "notNull": true
          },
          {
            "fieldPath": "scheme_code",
            "columnName": "scheme_code",
            "affinity": "TEXT",
            "notNull": true
          },
          {
            "fieldPath": "imagepath",
            "columnName": "imagepath",
            "affinity": "TEXT",
            "notNull": false
          },
          {
            "fieldPath": "slno",
            "columnName": "slno",
            "affinity": "TEXT",
            "notNull": true
          },
          {
            "fieldPath": "supplyHour",
            "columnName": "supplyHour",
            "affinity": "TEXT",
            "notNull": true
          },
          {
            "fieldPath": "supplMin",
            "columnName": "supplMin",
            "affinity": "TEXT",
            "notNull": true
          },
          {
            "fieldPath": "supplySec",
            "columnName": "supplySec",
            "affinity": "TEXT",
            "notNull": true
          },
          {
            "fieldPath": "time_duration",
            "columnName": "time_duration",
            "affinity": "TEXT",
            "notNull": true
          },
          {
            "fieldPath": "uploaded",
            "columnName": "uploaded",
            "affinity": "INTEGER",
            "notNull": true
          },
          {
            "fieldPath": "location",
            "columnName": "location",
            "affinity": "TEXT",
            "notNull": true
          },
          {
            "fieldPath": "habId",
            "columnName": "habId",
            "affinity": "TEXT",
            "notNull": true
          }
        ],
        "primaryKey": {
          "columnNames": [
            "id"
          ],
          "autoGenerate": false
        },
        "indices": [],
        "foreignKeys": []
      },
      {
        "tableName": "AnalysisData",
        "createSql": "CREATE TABLE IF NOT EXISTS `${TABLE_NAME}` (`sp_id` TEXT NOT NULL, `number` TEXT NOT NULL, `latitude` REAL NOT NULL, `longitude` REAL NOT NULL, `type` TEXT NOT NULL, `question` TEXT NOT NULL, `scheme_code` TEXT NOT NULL, `scheme_smcode` TEXT NOT NULL, `image_path` TEXT NOT NULL, `remarks` TEXT NOT NULL, `device_date` TEXT NOT NULL, `device_time` TEXT NOT NULL, `user_id` TEXT NOT NULL, `uploaded` INTEGER NOT NULL, PRIMARY KEY(`sp_id`))",
        "fields": [
          {
            "fieldPath": "sp_id",
            "columnName": "sp_id",
            "affinity": "TEXT",
            "notNull": true
          },
          {
            "fieldPath": "number",
            "columnName": "number",
            "affinity": "TEXT",
            "notNull": true
          },
          {
            "fieldPath": "latitude",
            "columnName": "latitude",
            "affinity": "REAL",
            "notNull": true
          },
          {
            "fieldPath": "longitude",
            "columnName": "longitude",
            "affinity": "REAL",
            "notNull": true
          },
          {
            "fieldPath": "type",
            "columnName": "type",
            "affinity": "TEXT",
            "notNull": true
          },
          {
            "fieldPath": "question",
            "columnName": "question",
            "affinity": "TEXT",
            "notNull": true
          },
          {
            "fieldPath": "scheme_code",
            "columnName": "scheme_code",
            "affinity": "TEXT",
            "notNull": true
          },
          {
            "fieldPath": "scheme_smcode",
            "columnName": "scheme_smcode",
            "affinity": "TEXT",
            "notNull": true
          },
          {
            "fieldPath": "image_path",
            "columnName": "image_path",
            "affinity": "TEXT",
            "notNull": true
          },
          {
            "fieldPath": "remarks",
            "columnName": "remarks",
            "affinity": "TEXT",
            "notNull": true
          },
          {
            "fieldPath": "device_date",
            "columnName": "device_date",
            "affinity": "TEXT",
            "notNull": true
          },
          {
            "fieldPath": "device_time",
            "columnName": "device_time",
            "affinity": "TEXT",
            "notNull": true
          },
          {
            "fieldPath": "user_id",
            "columnName": "user_id",
            "affinity": "TEXT",
            "notNull": true
          },
          {
            "fieldPath": "uploaded",
            "columnName": "uploaded",
            "affinity": "INTEGER",
            "notNull": true
          }
        ],
        "primaryKey": {
          "columnNames": [
            "sp_id"
          ],
          "autoGenerate": false
        },
        "indices": [],
        "foreignKeys": []
      }
    ],
    "setupQueries": [
      "CREATE TABLE IF NOT EXISTS room_master_table (id INTEGER PRIMARY KEY,identity_hash TEXT)",
      "INSERT OR REPLACE INTO room_master_table (id,identity_hash) VALUES(42, \"0e290b9a223c7a6edd63a49826f2c5f9\")"
    ]
  }
}